[
	{
		"id": 1,
		"name": "Darwin",
		"email": "darwin@email.com"
	},
	{
		"id": 2,
		"name": "Helen",
		"email": "helen@email.com"
	},
	{
		"id": 3,
		"name": "Nikka",
		"email": "nikka@email.com"
	}
]